{"state":200,"request":null,"message":"","cause":"","variables":{},"data":{"dataResult":[{"visitor_unit":"北京xxx科技股份有限公司","visit_object":"8D82D0E5******9AD14096A8E14","visit_arrive_date":null,"id_":"1240324389858181120","lid":"1240324389858181120","remark":"","visi_leave_date":null,"receive_status":"1","create_time_":"2024-05-15 15:26:18.655","vid":"1240324389279367168","visitor_id_card":"430502*******5015","request_dept":"数xxx品部","visit_start_date":"2024-05-16 08:00:00","visit_end_date":"2024-05-17 18:00:00","visitreason":"支撑xxx建设项目工作开展","vistor_phone":"186****9527","sign_leave_man":"","visit_adress":"xxxD-14楼","request_code":"Sxxxx202405150010","sign_leave_date":null,"request_man":"周xx","visitor":"胡xx"},{"visitor_unit":"北京xxx科技有限公司","visit_object":"5FE95AE1FFB******466B2AEA35","visit_arrive_date":null,"id_":"1240322554489470976","lid":"1240322554489470976","remark":"","visi_leave_date":null,"receive_status":"1","create_time_":"2024-05-15 15:19:01.069","vid":"1240322553952600064","visitor_id_card":"6228********0618","request_dept":"供xxxx品部","visit_start_date":"2024-05-16","visit_end_date":"2024-05-18 23:00:00","visitreason":"Bxxxx技术交流","vistor_phone":"176****7150","sign_leave_man":"","visit_adress":"xxxx5-8楼","request_code":"Sxxxx202405150009","sign_leave_date":null,"request_man":"肖xxx","visitor":"王xx"}],"pageResult":{"limit":8328,"page":1,"totalCount":8330,"totalPages":2}}}